<svg xmlns="http://www.w3.org/2000/svg" width="24" height="24" viewBox="0 0 24 24">
  <g id="Top_Agents" data-name="Top Agents" transform="translate(-6144 -8407)">
    <path id="Union_1" data-name="Union 1" d="M0,372v-2.25c0-2.476,4.05-4.5,9-4.5s9,2.025,9,4.5V372Zm4.5-13.5A4.5,4.5,0,1,1,9,363,4.5,4.5,0,0,1,4.5,358.5Z" transform="translate(6147 8056)" fill="#f68933"/>
    <rect id="Rectangle_140" data-name="Rectangle 140" width="24" height="24" transform="translate(6144 8407)" fill="none"/>
  </g>
</svg>
